{
    "name": "OLS.BaseEcs.Data",
    "rootNamespace": "",
    "references": [
        "GUID:e59bf9fc7d5a44b18a819a92edd46163",
        "GUID:d248595f2c3b67b468e759d10e91ece8"
    ],
    "includePlatforms": [],
    "excludePlatforms": [],
    "allowUnsafeCode": false,
    "overrideReferences": false,
    "precompiledReferences": [],
    "autoReferenced": true,
    "defineConstraints": [],
    "versionDefines": [],
    "noEngineReferences": false
}