%YAML 1.1
%TAG !u! tag:unity3d.com,2011:
--- !u!114 &11400000
MonoBehaviour:
  m_ObjectHideFlags: 0
  m_CorrespondingSourceObject: {fileID: 0}
  m_PrefabInstance: {fileID: 0}
  m_PrefabAsset: {fileID: 0}
  m_GameObject: {fileID: 0}
  m_Enabled: 1
  m_EditorHideFlags: 0
  m_Script: {fileID: 11500000, guid: bbb281ee3bf0b054c82ac2347e9e782c, type: 3}
  m_Name: Built In Data
  m_EditorClassIdentifier: 
  m_GroupName: Built In Data
  m_Data:
    m_SerializedData: []
  m_GUID: 3c340a63864332c498ca5b37ba6889bd
  m_SerializeEntries:
  - m_GUID: Resources
    m_Address: Resources
    m_ReadOnly: 1
    m_SerializedLabels: []
    FlaggedDuringContentUpdateRestriction: 0
  - m_GUID: EditorSceneList
    m_Address: EditorSceneList
    m_ReadOnly: 1
    m_SerializedLabels: []
    FlaggedDuringContentUpdateRestriction: 0
  m_ReadOnly: 1
  m_Settings: {fileID: 11400000, guid: 2ee878d778133d04d8a63b5d353f2eab, type: 2}
  m_SchemaSet:
    m_Schemas:
    - {fileID: 11400000, guid: b6a153802c35c7741a9a7bfda39088c2, type: 2}
