{
    "name": "OLS.Camera.Data",
    "rootNamespace": "OLS",
    "references": [
        "GUID:e59bf9fc7d5a44b18a819a92edd46163",
        "GUID:eee466532697a004eba7a32816df6136",
        "GUID:0fc1831254a1ed149815c9895008b232",
        "GUID:a04f4c8955ae1fe4496d0fe3f519e95c"
    ],
    "includePlatforms": [],
    "excludePlatforms": [],
    "allowUnsafeCode": false,
    "overrideReferences": false,
    "precompiledReferences": [],
    "autoReferenced": false,
    "defineConstraints": [],
    "versionDefines": [],
    "noEngineReferences": false
}